%YAML 1.1
%TAG !u! tag:unity3d.com,2011:
--- !u!114 &11400000
MonoBehaviour:
  m_ObjectHideFlags: 0
  m_PrefabParentObject: {fileID: 0}
  m_PrefabInternal: {fileID: 0}
  m_GameObject: {fileID: 0}
  m_Enabled: 1
  m_EditorHideFlags: 0
  m_Script: {fileID: 11500000, guid: 98003ebeb1a4f42469051818bc0d03ee, type: 3}
  m_Name: HealthPotionGreater
  m_EditorClassIdentifier: 
  icon: {fileID: 21300000, guid: 3eae3e6f7c1307441ab14e1ee6edb242, type: 3}
  spriteColor: {r: 0.20784314, g: 0.7882353, b: 0.28235295, a: 1}
  colorOffRarity: 0
  rarity: 3
  iname: Greater Health Potion
  description: A health potion that heals a large amount.
  canSell: 1
  sellGold: 50
  maxStack: 5
  consumeAction: {fileID: 11400000, guid: a60d5961465e1984a85da4e7096c5cfd, type: 2}
