%YAML 1.1
%TAG !u! tag:unity3d.com,2011:
--- !u!114 &11400000
MonoBehaviour:
  m_ObjectHideFlags: 0
  m_PrefabParentObject: {fileID: 0}
  m_PrefabInternal: {fileID: 0}
  m_GameObject: {fileID: 0}
  m_Enabled: 1
  m_EditorHideFlags: 0
  m_Script: {fileID: 11500000, guid: 98003ebeb1a4f42469051818bc0d03ee, type: 3}
  m_Name: HealthPotionMega
  m_EditorClassIdentifier: 
  icon: {fileID: 21300000, guid: 3eae3e6f7c1307441ab14e1ee6edb242, type: 3}
  spriteColor: {r: 0.22772491, g: 0.5955882, b: 0.2749506, a: 1}
  colorOffRarity: 0
  rarity: 4
  iname: Mega Health Potion
  description: A health potion that heals for a very large amount.
  canSell: 1
  sellGold: 65
  maxStack: 5
  consumeAction: {fileID: 11400000, guid: 6966b6eb1f0a2704f83da11c2ddb9008, type: 2}
