%YAML 1.1
%TAG !u! tag:unity3d.com,2011:
--- !u!114 &11400000
MonoBehaviour:
  m_ObjectHideFlags: 0
  m_PrefabParentObject: {fileID: 0}
  m_PrefabInternal: {fileID: 0}
  m_GameObject: {fileID: 0}
  m_Enabled: 1
  m_EditorHideFlags: 0
  m_Script: {fileID: 11500000, guid: 0b82b2aa64dffea4ebc3cff4285bdcb2, type: 3}
  m_Name: ConsumeActionHeal_nrmpot
  m_EditorClassIdentifier: 
  player:
    referenceType: 0
    holder: {fileID: 11400000, guid: e87698eb709b1a0488b45f12bbb527dc, type: 2}
    direct: {fileID: 0}
  healAmt: 75
  increaseMaxBy: 0
