%YAML 1.1
%TAG !u! tag:unity3d.com,2011:
--- !u!114 &11400000
MonoBehaviour:
  m_ObjectHideFlags: 0
  m_PrefabParentObject: {fileID: 0}
  m_PrefabInternal: {fileID: 0}
  m_GameObject: {fileID: 0}
  m_Enabled: 1
  m_EditorHideFlags: 0
  m_Script: {fileID: 11500000, guid: bc14fb4c77c93cf46843093c70beb9da, type: 3}
  m_Name: IntroQuest1
  m_EditorClassIdentifier: 
  questName: Introductory Quest
  questDescription: Hello, and welcome to Eden!
  questDifficulty: 1
  questType: 0
  autoEnd: 0
  maxFaints: 3
  findItems: []
  monsterData: []
  huntMap: Test
  isImportantQuest: 1
  isStoryQuest: 1
  rewards:
  - {fileID: 11400000, guid: 3ed1c453532e1734faab3306c0aeccd7, type: 2}
  - {fileID: 11400000, guid: 4e5b3f43049d0c64483f966c545340a6, type: 2}
  - {fileID: 11400000, guid: 4e5b3f43049d0c64483f966c545340a6, type: 2}
  - {fileID: 11400000, guid: 3ed1c453532e1734faab3306c0aeccd7, type: 2}
  rewardGold: 200
