%YAML 1.1
%TAG !u! tag:unity3d.com,2011:
--- !u!114 &11400000
MonoBehaviour:
  m_ObjectHideFlags: 0
  m_PrefabParentObject: {fileID: 0}
  m_PrefabInternal: {fileID: 0}
  m_GameObject: {fileID: 0}
  m_Enabled: 1
  m_EditorHideFlags: 0
  m_Script: {fileID: 11500000, guid: 015011b1913065941a3aac1765167963, type: 3}
  m_Name: PlantNode1
  m_EditorClassIdentifier: 
  test: 1
  numDrops:
    rangeStart: 1
    rangeEnd: 1
  dropValue:
    rangeStart: 0
    rangeEnd: 100
  drops:
  - dropChance:
      rangeStart: 0
      rangeEnd: 65
    droppedItem:
      attachedItem: {fileID: 11400000, guid: 9d75d8d022e612541b3a6f77eb8471d0, type: 2}
      stackSize:
        rangeStart: 1
        rangeEnd: 3
  - dropChance:
      rangeStart: 65
      rangeEnd: 100
    droppedItem:
      attachedItem: {fileID: 11400000, guid: 65fa5f26c0316354eb4901462a4a2448, type: 2}
      stackSize:
        rangeStart: 1
        rangeEnd: 3
